…
      convert_wide_to_tidy_omic(wide_df_nonunique_feature_id, feature_pk = "name")
    Condition
      Warning in `convert_wide_to_tidy_omic()`:
      4 rows did not contain a unique name; adding extra variables 'unique_name' & 'entry_number' to distinguish them
      Warning:
      `mutate_()` was deprecated in dplyr 0.7.0.
      i Please use `mutate()` instead.
      i See vignette('programming') for more help
    Message
      1 measurement variables were defined as the
      left overs from the specified feature and sample varaibles:
      abundance
    Output
      $data
      # A tibble: 19,500 x 5
         name    entry_number unique_name sample abundance                            
         <chr>          <int> <chr>       <chr>  <chr>                                
       1 YOL029C            1 YOL029C-1   BP     biological process unknown           
       2 YOL029C            2 YOL029C-2   BP     cytokinesis, completion of separation
       3 YOL029C            3 YOL029C-3   BP     biological process unknown           
       4 YOL029C            4 YOL029C-4   BP     cell wall organization and biogenesis
       5 YOL029C            5 YOL029C-5   BP     cell wall organization and biogenesi~
       6 FKH1               1 FKH1        BP     pseudohyphal growth*                 
       7 HOC1               1 HOC1        BP     cell wall mannoprotein biosynthesis* 
       8 CSN12              1 CSN12       BP     adaptation to pheromone during conju~
       9 YAL046C            1 YAL046C     BP     biological process unknown           
      10 SLG1               1 SLG1        BP     cell wall organization and biogenesi~
      # i 19,490 more rows
…
