Convert Wide to Tidy Omic — convert_wide_to_tidy_omic • romic
…
wide_measurements <- brauer_2008_triple[["measurements"]] %>%
  tidyr::spread(sample, expression)

wide_df <- brauer_2008_triple[["features"]] %>%
  left_join(wide_measurements, by = "name")

convert_wide_to_tidy_omic(wide_df,
  feature_pk = "name",
  feature_vars = c("BP", "MF", "systematic_name")
)

#> $data
#> # A tibble: 18,000 x 6
#>    name   BP                   MF               systematic_name sample abundance
#>    <chr>  <chr>                <chr>            <chr>           <chr>      <dbl>
#>  1 YOL02… biological process … molecular funct… YOL029C         G0.05      -0.22
#>  2 SCW11  cytokinesis, comple… glucan 1,3-beta… YGL028C         G0.05      -0.67
#>  3 YHR03… biological process … molecular funct… YHR036W         G0.05      -0.91
#>  4 BGL2   cell wall organizat… glucan 1,3-beta… YGR282C         G0.05      -0.08
#>  5 ACT1   cell wall organizat… structural cons… YFL039C         G0.05      -0.04
#>  6 FKH1   pseudohyphal growth* transcription f… YIL131C         G0.05      -0.57
#>  7 HOC1   cell wall mannoprot… transferase act… YJR075W         G0.05      -0.42
#>  8 CSN12  adaptation to phero… molecular funct… YJR084W         G0.05      -0.49
#>  9 YAL04… biological process … molecular funct… YAL046C         G0.05       0.05
#> 10 SLG1   cell wall organizat… transmembrane r… YOR008C         G0.05      -0.06
#> # … with 17,990 more rows
…
