Create Tidy Omic — create_tidy_omic • romic
…
triple_omic <- create_triple_omic(
  measurement_df, feature_df, sample_df,
  "feature_id", "sample_id"
)
raw_tidy_omic <- triple_to_tidy(triple_omic)$data

create_tidy_omic(raw_tidy_omic,
  feature_pk = "feature_id",
  feature_vars = "feature_group", sample_pk = "sample_id",
  sample_vars = "sample_group"
)

#> $data
#> # A tibble: 50 × 5
#>    feature_id feature_group sample_id sample_group    value
#>         <int> <chr>         <chr>     <chr>           <dbl>
#>  1          1 a             A         a            -1.40   
#>  2          1 a             B         a             0.255  
#>  3          1 a             C         b            -2.44   
#>  4          1 a             D         b            -0.00557
#>  5          1 a             E         b             0.622  
#>  6          2 a             A         a             1.15   
#>  7          2 a             B         a            -1.82   
#>  8          2 a             C         b            -0.247  
#>  9          2 a             D         b            -0.244  
#> 10          2 a             E         b            -0.283  
#> # … with 40 more rows
…
