Triple Omic to Tidy Omic — triple_to_tidy • romic
…
triple_omic <- create_triple_omic(
  measurement_df, feature_df, sample_df,
  "feature_id", "sample_id"
)
triple_to_tidy(triple_omic)
#> $data
#> # A tibble: 50 × 5
#>    feature_id feature_group sample_id sample_group   value
#>         <int> <chr>         <chr>     <chr>          <dbl>
#>  1          1 a             A         a            -0.669 
#>  2          1 a             B         a             0.0900
#>  3          1 a             C         b            -0.331 
#>  4          1 a             D         b            -0.514 
#>  5          1 a             E         b            -0.907 
#>  6          2 a             A         a             0.241 
#>  7          2 a             B         a            -0.478 
#>  8          2 a             C         b            -2.46  
#>  9          2 a             D         b            -1.42  
#> 10          2 a             E         b             0.467 
#> # … with 40 more rows
…
